GFORTRAN module version '6' created from functions.f90 on Sun May 17 04:41:37 2015
MD5:c9a70270d4ce29ca93a54a122bdb84ad -- If you edit this, you'll get what you deserve.

(() () () () () () () () () () () () () () () () () () () () () () () ()
() () ())

()

()

()

()

()

(2 'epsilon' 'functions' 'epsilon' 1 ((VARIABLE UNKNOWN-INTENT
UNKNOWN-PROC UNKNOWN IMPLICIT-SAVE 0 0) (REAL 8 0 0 REAL ()) 0 0 () () 0
() () () 0 0)
3 'f' 'functions' 'f' 1 ((PROCEDURE UNKNOWN-INTENT MODULE-PROC DECL
UNKNOWN 0 0 FUNCTION IMPLICIT_PURE) (REAL 8 0 0 REAL ()) 4 0 (5) () 3 ()
() () 0 0)
6 'f_quadratic' 'functions' 'f_quadratic' 1 ((PROCEDURE UNKNOWN-INTENT
MODULE-PROC DECL UNKNOWN 0 0 FUNCTION IMPLICIT_PURE) (REAL 8 0 0 REAL ())
7 0 (8) () 6 () () () 0 0)
9 'f_sqrt' 'functions' 'f_sqrt' 1 ((PROCEDURE UNKNOWN-INTENT MODULE-PROC
DECL UNKNOWN 0 0 FUNCTION IMPLICIT_PURE) (REAL 8 0 0 REAL ()) 10 0 (11)
() 9 () () () 0 0)
12 'fprime' 'functions' 'fprime' 1 ((PROCEDURE UNKNOWN-INTENT
MODULE-PROC DECL UNKNOWN 0 0 FUNCTION IMPLICIT_PURE) (REAL 8 0 0 REAL ())
13 0 (14) () 12 () () () 0 0)
15 'fprime_quadratic' 'functions' 'fprime_quadratic' 1 ((PROCEDURE
UNKNOWN-INTENT MODULE-PROC DECL UNKNOWN 0 0 FUNCTION IMPLICIT_PURE) (
REAL 8 0 0 REAL ()) 16 0 (17) () 15 () () () 0 0)
18 'fprime_sqrt' 'functions' 'fprime_sqrt' 1 ((PROCEDURE UNKNOWN-INTENT
MODULE-PROC DECL UNKNOWN 0 0 FUNCTION IMPLICIT_PURE) (REAL 8 0 0 REAL ())
19 0 (20) () 18 () () () 0 0)
21 'functions' 'functions' 'functions' 1 ((MODULE UNKNOWN-INTENT
UNKNOWN-PROC UNKNOWN UNKNOWN 0 0) (UNKNOWN 0 0 0 UNKNOWN ()) 0 0 () () 0
() () () 0 0)
22 'g' 'functions' 'g' 1 ((PROCEDURE UNKNOWN-INTENT MODULE-PROC DECL
UNKNOWN 0 0 FUNCTION IMPLICIT_PURE) (REAL 8 0 0 REAL ()) 23 0 (24) () 22
() () () 0 0)
25 'gprime' 'functions' 'gprime' 1 ((PROCEDURE UNKNOWN-INTENT
MODULE-PROC DECL UNKNOWN 0 0 FUNCTION IMPLICIT_PURE) (REAL 8 0 0 REAL ())
26 0 (27) () 25 () () () 0 0)
28 'h' 'functions' 'h' 1 ((PROCEDURE UNKNOWN-INTENT MODULE-PROC DECL
UNKNOWN 0 0 FUNCTION) (REAL 8 0 0 REAL ()) 29 0 (30) () 28 () () () 0 0)
31 'hprime' 'functions' 'hprime' 1 ((PROCEDURE UNKNOWN-INTENT
MODULE-PROC DECL UNKNOWN 0 0 FUNCTION) (REAL 8 0 0 REAL ()) 32 0 (33) ()
31 () () () 0 0)
11 'x' '' 'x' 10 ((VARIABLE IN UNKNOWN-PROC UNKNOWN UNKNOWN 0 0 DUMMY) (
REAL 8 0 0 REAL ()) 0 0 () () 0 () () () 0 0)
20 'x' '' 'x' 19 ((VARIABLE IN UNKNOWN-PROC UNKNOWN UNKNOWN 0 0 DUMMY) (
REAL 8 0 0 REAL ()) 0 0 () () 0 () () () 0 0)
5 'x' '' 'x' 4 ((VARIABLE IN UNKNOWN-PROC UNKNOWN UNKNOWN 0 0 DUMMY) (
REAL 8 0 0 REAL ()) 0 0 () () 0 () () () 0 0)
14 'x' '' 'x' 13 ((VARIABLE IN UNKNOWN-PROC UNKNOWN UNKNOWN 0 0 DUMMY) (
REAL 8 0 0 REAL ()) 0 0 () () 0 () () () 0 0)
24 'x' '' 'x' 23 ((VARIABLE IN UNKNOWN-PROC UNKNOWN UNKNOWN 0 0 DUMMY) (
REAL 8 0 0 REAL ()) 0 0 () () 0 () () () 0 0)
27 'x' '' 'x' 26 ((VARIABLE IN UNKNOWN-PROC UNKNOWN UNKNOWN 0 0 DUMMY) (
REAL 8 0 0 REAL ()) 0 0 () () 0 () () () 0 0)
30 'x' '' 'x' 29 ((VARIABLE IN UNKNOWN-PROC UNKNOWN UNKNOWN 0 0 DUMMY) (
REAL 8 0 0 REAL ()) 0 0 () () 0 () () () 0 0)
33 'x' '' 'x' 32 ((VARIABLE IN UNKNOWN-PROC UNKNOWN UNKNOWN 0 0 DUMMY) (
REAL 8 0 0 REAL ()) 0 0 () () 0 () () () 0 0)
8 'x' '' 'x' 7 ((VARIABLE IN UNKNOWN-PROC UNKNOWN UNKNOWN 0 0 DUMMY) (
REAL 8 0 0 REAL ()) 0 0 () () 0 () () () 0 0)
17 'x' '' 'x' 16 ((VARIABLE IN UNKNOWN-PROC UNKNOWN UNKNOWN 0 0 DUMMY) (
REAL 8 0 0 REAL ()) 0 0 () () 0 () () () 0 0)
)

('epsilon' 0 2 'f' 0 3 'f_quadratic' 0 6 'f_sqrt' 0 9 'fprime' 0 12
'fprime_quadratic' 0 15 'fprime_sqrt' 0 18 'functions' 0 21 'g' 0 22
'gprime' 0 25 'h' 0 28 'hprime' 0 31)
